[gd_scene load_steps=4 format=2]

[ext_resource path="res://icon.png" type="Texture" id=1]
[ext_resource path="res://Node2D.gd" type="Script" id=2]

[sub_resource type="RectangleShape2D" id=1]
extents = Vector2( 30.6139, 30.9616 )

[node name="player" type="Area2D"]
script = ExtResource( 2 )

[node name="Sprite" type="Sprite" parent="."]
texture = ExtResource( 1 )

[node name="CollisionShape2D" type="CollisionShape2D" parent="."]
shape = SubResource( 1 )
[connection signal="area_entered" from="." to="." method="_on_player_area_entered"]
[connection signal="body_entered" from="." to="." method="_on_player_body_entered"]
